{
   "description" : "splashConfiguration",
   // Default encoding for text
   "encoding" : "UTF-8",
   "scenes" : {
      "local" : {
         "address" : "localhost",
         "links" : [
            [ "object", "camera_1" ],
            [ "mesh", "object" ],
            [ "image", "object" ],
            [ "camera_1", "window_1" ],
         ],
         "objects" : {
            "camera_1" : {
               "16bits" : [ true ],
               "activateColorLUT" : [ 0 ],
               "alias" : [ "camera_1" ],
               "blendPrecision" : [ 0.10000000149011612 ],
               "blendWidth" : [ 0.05000000074505806 ],
               "brightness" : [ 1 ],
               "buffer" : null,
               "colorMixMatrix" : [
                  [ 1, 0, 0, 0, 1, 0, 0, 0, 1 ]
               ],
               "colorTemperature" : [ 6500 ],
               "contrast" : [ 1 ],
               "eye" : [ 2.31241774559021, 1.9932471513748169, 1.4240027666091919 ],
               "far" : [ 100 ],
               "fov" : [ 58 ],
               "getReprojectionError" : [ 0 ],
               "grabMipmapLevel" : [ -1 ],
               "hide" : [ false ],
               "multisampling" : [ 0 ],
               "near" : [ 0.10000000149011612 ],
               "principalPoint" : [ 0.5, 0.5 ],
               "priorityShift" : [ 0 ],
               "saturation" : [ 1 ],
               "savable" : [ true ],
               "size" : [ 1280, 720 ],
               "target" : [ 0.33982363343238831, 0.21721945703029633, 0.42670729756355286 ],
               "timestamp" : [ 1853296687 ],
               "type" : "camera",
               "up" : [ 0, 0, 1 ],
               "weightedCalibrationPoints" : [ true ]
            },
            "image" : {
               "alias" : [ "image" ],
               "file" : [ "../videos/Mantissa_loop_051_2048x1024_mjpeg.mov" ],
               "flip" : [ true ],
               "flop" : [ false ],
               "pattern" : [ false ],
               "priorityShift" : [ 0 ],
               "reload" : [ false ],
               "savable" : [ true ],
               "srgb" : [ true ],
               "timestamp" : [ 1853296687 ],
               "type" : "image_ffmpeg"
            },
            "mesh" : {
               "alias" : [ "mesh" ],
               "file" : [ "../models/wall_corner.obj" ],
               "priorityShift" : [ 0 ],
               "reload" : [ false ],
               "savable" : [ true ],
               "timestamp" : [ 1853304039 ],
               "type" : "mesh"
            },
            "object" : {
               "alias" : [ "object" ],
               "color" : [ 0, 0, 0, 1 ],
               "fill" : [ "texture" ],
               "normalExponent" : [ 0 ],
               "position" : [ 0, 0, 0 ],
               "priorityShift" : [ 0 ],
               "rotation" : [ 0, 0, 0 ],
               "savable" : [ true ],
               "scale" : [ 1, 1, 1 ],
               "sideness" : [ 0 ],
               "timestamp" : [ 1853296687 ],
               "type" : "object"
            },
            "window_1" : {
               "alias" : [ "window_1" ],
               "decorated" : [ false ],
               "gamma" : [ 2.2000000476837158 ],
               "guiOnly" : [ false ],
               "layout" : [ 0, 1, 2, 3 ],
               "position" : [ 604, 189 ],
               "presentationDelay" : [ 31598619 ],
               "priorityShift" : [ 0 ],
               "savable" : [ true ],
               "size" : [ 1280, 720 ],
               "snapDistance" : [ 16 ],
               "srgb" : [ true ],
               "textureList" : [ "window_1_camera_1_warp" ],
               "timestamp" : [ 1853296687 ],
               "type" : "window"
            }
         },
         "spawn" : 1,
         "swapInterval" : [ 1 ]
      }
   },
   "version" : "0.8.49",
   "world" : {
      "clock" : [ ],
      "clockDeviceName" : [ "" ],
      "configurationPath" : [ "" ],
      "forceRealtime" : [ false ],
      "framerate" : [ 15 ],
      "looseClock" : [ false ],
      "mediaPath" : [ "" ]
   }
}
